<?xml version="1.0" encoding="UTF-8"?>
<svg width="19px" height="13px" viewBox="0 0 19 13" version="1.1" xmlns="http://www.w3.org/2000/svg" xmlns:xlink="http://www.w3.org/1999/xlink">
    <!-- Generator: Sketch 54.1 (76490) - https://sketchapp.com -->
    <title>Path 2</title>
    <desc>Created with Sketch.</desc>
    <g id="03-Sneakers" stroke="none" stroke-width="1" fill="none" fill-rule="evenodd">
        <g id="PC_03Sneakers_03Buy_02Bid_02CreditCard_02Popup" transform="translate(-984.000000, -640.000000)" stroke="#FFFFFF" stroke-width="2">
            <g id="Group-3" transform="translate(745.000000, 188.000000)">
                <polyline id="Path-2" points="240 457.871754 245.762742 463 257 453"></polyline>
            </g>
        </g>
    </g>
</svg>