<svg xmlns="http://www.w3.org/2000/svg" width="24" height="24" viewBox="0 0 24 24">
    <g fill="none" fill-rule="evenodd">
        <path d="M0 0h24v24H0z"/>
        <path stroke="#454545" stroke-linecap="square" d="M12 12L4 4l8 8 8-8-8 8zm0 0l8 8-8-8-8 8 8-8z"/>
    </g>
</svg>
