<?xml version="1.0" encoding="UTF-8"?>
<svg width="19px" height="13px" viewBox="0 0 19 13" version="1.1" xmlns="http://www.w3.org/2000/svg" xmlns:xlink="http://www.w3.org/1999/xlink">
    <!-- Generator: Sketch 54.1 (76490) - https://sketchapp.com -->
    <title>Path 2</title>
    <desc>Created with Sketch.</desc>
    <g id="03-Sneakers" stroke="none" stroke-width="1" fill="none" fill-rule="evenodd">
        <g id="MO_03Sneakers_04Sell_02Step01_04" transform="translate(-321.000000, -471.000000)" stroke="#FF5531" stroke-width="2">
            <polyline id="Path-2" points="322 476.871754 327.762742 482 339 472"></polyline>
        </g>
    </g>
</svg>