<?xml version="1.0" encoding="UTF-8"?>
<svg width="12px" height="12px" viewBox="0 0 12 12" version="1.1" xmlns="http://www.w3.org/2000/svg" xmlns:xlink="http://www.w3.org/1999/xlink">
    <!-- Generator: Sketch 54.1 (76490) - https://sketchapp.com -->
    <title>Combined Shape</title>
    <desc>Created with Sketch.</desc>
    <g id="Symbols" stroke="none" stroke-width="1" fill="none" fill-rule="evenodd">
        <g id="BTN-/-Attached-File-/-Delete" transform="translate(-6.000000, -6.000000)" fill="#FF5531">
            <path d="M12.5,12.5 L12.5,20 L11.5,20 L11.5,12.5 L4,12.5 L4,11.5 L11.5,11.5 L11.5,4 L12.5,4 L12.5,11.5 L20,11.5 L20,12.5 L12.5,12.5 Z" id="Combined-Shape" transform="translate(12.000000, 12.000000) rotate(-315.000000) translate(-12.000000, -12.000000) "></path>
        </g>
    </g>
</svg>