<?xml version="1.0" encoding="UTF-8"?>
<svg width="16px" height="16px" viewBox="0 0 16 16" version="1.1" xmlns="http://www.w3.org/2000/svg" xmlns:xlink="http://www.w3.org/1999/xlink">
    <!-- Generator: Sketch 54.1 (76490) - https://sketchapp.com -->
    <title>Combined Shape</title>
    <desc>Created with Sketch.</desc>
    <g id="Symbols" stroke="none" stroke-width="1" fill="none" fill-rule="evenodd">
        <g id="BTN-/-Attached-File-/-Upload" transform="translate(-307.000000, -12.000000)" fill="#454545">
            <path d="M315.5,20.5 L315.5,28 L314.5,28 L314.5,20.5 L307,20.5 L307,19.5 L314.5,19.5 L314.5,12 L315.5,12 L315.5,19.5 L323,19.5 L323,20.5 L315.5,20.5 Z" id="Combined-Shape"></path>
        </g>
    </g>
</svg>