<?xml version="1.0" encoding="UTF-8"?>
<svg width="16px" height="16px" viewBox="0 0 16 16" version="1.1" xmlns="http://www.w3.org/2000/svg" xmlns:xlink="http://www.w3.org/1999/xlink">
    <!-- Generator: Sketch 54.1 (76490) - https://sketchapp.com -->
    <title>ICON / Tooltip</title>
    <desc>Created with Sketch.</desc>
    <g id="Symbols" stroke="none" stroke-width="1" fill="none" fill-rule="evenodd">
        <g id="MO-/-BTN-/-Filters-/-Default" transform="translate(-224.000000, -17.000000)">
            <g id="ICON-/-DarkBG-/-Arrow" transform="translate(224.000000, 17.000000)">
                <rect id="Rectangle" stroke="#767676" stroke-width="1" opacity="0.5" x="0.5" y="0.5" width="15" height="15" rx="7.5"></rect>
                <polygon id="Triangle" fill="#454545" fill-rule="evenodd" transform="translate(8.000000, 9.000000) rotate(-180.000000) translate(-8.000000, -9.000000) " points="8 7 11 11 5 11"></polygon>
            </g>
        </g>
    </g>
</svg>