<?xml version="1.0" encoding="UTF-8"?>
<svg width="17px" height="16px" viewBox="0 0 17 16" version="1.1" xmlns="http://www.w3.org/2000/svg" xmlns:xlink="http://www.w3.org/1999/xlink">
    <!-- Generator: Sketch 54.1 (76490) - https://sketchapp.com -->
    <title>Combined Shape</title>
    <desc>Created with Sketch.</desc>
    <g id="Symbols" stroke="none" stroke-width="1" fill="none" fill-rule="evenodd">
        <g id="BTN-/-Detail-View-/-LightBG-/-Normal" transform="translate(-15.000000, -16.000000)" fill="#FFFFFF">
            <path d="M24,23.1111111 L31.1111111,23.1111111 L31.1111111,24.8888889 L24,24.8888889 L24,32 L22.2222222,32 L22.2222222,24.8888889 L15.1111111,24.8888889 L15.1111111,23.1111111 L22.2222222,23.1111111 L22.2222222,16 L24,16 L24,23.1111111 Z" id="Combined-Shape"></path>
        </g>
    </g>
</svg>