<?xml version="1.0" encoding="UTF-8"?>
<svg width="30px" height="30px" viewBox="0 0 30 30" version="1.1" xmlns="http://www.w3.org/2000/svg" xmlns:xlink="http://www.w3.org/1999/xlink">
    <!-- Generator: Sketch 54.1 (76490) - https://sketchapp.com -->
    <title>MO / Menu / 1Depth / Default / ICON_Setting</title>
    <desc>Created with Sketch.</desc>
    <g id="MO-/-Menu-/-1Depth-/-Default-/-ICON_Setting" stroke="none" stroke-width="1" fill="none" fill-rule="evenodd">
        <rect id="Rectangle" x="0" y="0" width="30" height="30"></rect>
        <g id="Group-5" transform="translate(6.000000, 5.000000)" stroke="#454545" stroke-linecap="round">
            <path d="M2.9476,7.67 L0.8106,7.813 C0.6356,7.824 0.5006,7.97 0.5006,8.145 L0.5006,10.41 C0.5006,10.586 0.6356,10.732 0.8106,10.743 L2.8916,10.882 C3.0436,11.54 3.2906,12.16 3.6196,12.728 L2.2096,14.34 C2.0936,14.472 2.0996,14.671 2.2236,14.795 L3.8256,16.397 C3.9496,16.521 4.1486,16.527 4.2816,16.412 L5.8506,15.039 C6.4076,15.388 7.0186,15.658 7.6706,15.831 L7.8126,17.967 C7.8246,18.142 7.9696,18.278 8.1456,18.278 L10.4106,18.278 C10.5866,18.278 10.7316,18.142 10.7436,17.967 L10.8826,15.886 C11.5396,15.735 12.1606,15.488 12.7276,15.158 L14.3406,16.569 C14.4716,16.685 14.6716,16.678 14.7956,16.554 L16.3966,14.952 C16.5206,14.828 16.5276,14.629 16.4116,14.497 L15.0386,12.927 C15.3876,12.37 15.6576,11.759 15.8316,11.108 L17.9676,10.965 C18.1416,10.954 18.2776,10.808 18.2776,10.633 L18.2776,8.368 C18.2776,8.192 18.1416,8.046 17.9676,8.035 L15.8856,7.896 C15.7346,7.238 15.4876,6.618 15.1586,6.05 L16.5686,4.438 C16.6846,4.306 16.6776,4.107 16.5536,3.983 L14.9526,2.381 C14.8286,2.257 14.6296,2.251 14.4976,2.366 L12.9266,3.739 C12.3706,3.39 11.7596,3.12 11.1076,2.947 L10.9656,0.811 C10.9536,0.636 10.8076,0.5 10.6336,0.5 L8.3676,0.5 C8.1916,0.5 8.0466,0.636 8.0346,0.811 L7.8956,2.892 C7.2386,3.043 6.6186,3.29 6.0506,3.62 L4.4376,2.209 C4.3056,2.093 4.1066,2.1 3.9826,2.224 L2.3816,3.826 C2.2576,3.95 2.2506,4.149 2.3666,4.281 L3.7396,5.851" id="Stroke-1"></path>
            <path d="M12.8333,9.3888 C12.8333,11.2918 11.2913,12.8338 9.3893,12.8338 C7.4863,12.8338 5.9443,11.2918 5.9443,9.3888 C5.9443,7.4868 7.4863,5.9448 9.3893,5.9448 C11.2913,5.9448 12.8333,7.4868 12.8333,9.3888 Z" id="Stroke-3"></path>
        </g>
    </g>
</svg>