<?xml version="1.0" encoding="UTF-8"?>
<svg width="30px" height="30px" viewBox="0 0 30 30" version="1.1" xmlns="http://www.w3.org/2000/svg" xmlns:xlink="http://www.w3.org/1999/xlink">
    <!-- Generator: Sketch 54.1 (76490) - https://sketchapp.com -->
    <title>MO / Menu / 1Depth / Default / ICON_About</title>
    <desc>Created with Sketch.</desc>
    <g id="MO-/-Menu-/-1Depth-/-Default-/-ICON_About" stroke="none" stroke-width="1" fill="none" fill-rule="evenodd">
        <rect id="Rectangle" x="0" y="0" width="30" height="30"></rect>
        <g id="Group-5" transform="translate(6.000000, 5.000000)">
            <path d="M10.3214,6.0905 C10.3214,6.3195 10.2364,6.5165 10.0694,6.6835 C9.9014,6.8505 9.6944,6.9335 9.4484,6.9335 C9.3254,6.9335 9.2114,6.9105 9.1044,6.8655 C8.9994,6.8195 8.9064,6.7585 8.8274,6.6835 C8.7494,6.6085 8.6854,6.5205 8.6374,6.4185 C8.5904,6.3175 8.5664,6.2085 8.5664,6.0905 C8.5664,5.8545 8.6534,5.6575 8.8274,5.4965 C9.0024,5.3365 9.2094,5.2565 9.4484,5.2565 C9.6874,5.2565 9.8934,5.3385 10.0644,5.5015 C10.2354,5.6655 10.3214,5.8615 10.3214,6.0905 L10.3214,6.0905 Z M10.1974,12.7425 C10.1834,13.0375 10.4814,13.1845 11.0914,13.1845 L11.0914,13.7435 L7.9084,13.7435 L7.9084,13.1845 C8.4974,13.1845 8.7924,13.0375 8.7924,12.7425 L8.7924,8.7485 C8.7924,8.4475 8.4974,8.2975 7.9084,8.2975 L7.9084,7.7375 L10.1974,7.7375 L10.1974,12.7425 Z" id="Fill-1" fill="#454545"></path>
            <path d="M3.834,2.5075 C5.381,1.2525 7.353,0.5005 9.5,0.5005 C14.471,0.5005 18.5,4.5295 18.5,9.5005 C18.5,14.4705 14.471,18.5005 9.5,18.5005 C4.529,18.5005 0.5,14.4705 0.5,9.5005 C0.5,7.9655 0.884,6.5205 1.562,5.2565" id="Stroke-3" stroke="#454545" stroke-linecap="round"></path>
        </g>
    </g>
</svg>