<?xml version="1.0" encoding="UTF-8"?>
<svg width="20px" height="20px" viewBox="0 0 20 20" version="1.1" xmlns="http://www.w3.org/2000/svg" xmlns:xlink="http://www.w3.org/1999/xlink">
    <!-- Generator: Sketch 54.1 (76490) - https://sketchapp.com -->
    <title>ICON / Reset</title>
    <desc>Created with Sketch.</desc>
    <g id="Symbols" stroke="none" stroke-width="1" fill="none" fill-rule="evenodd">
        <g id="BTN-/-Reset" transform="translate(-40.000000, -1.000000)">
            <g id="ICON-/-Reset" transform="translate(40.000000, 1.000000)">
                <circle id="Oval" stroke="#BBBBBB" fill="#FFFFFF" cx="10" cy="10" r="9.5"></circle>
                <g id="Group-7" transform="translate(9.485148, 10.379039) scale(-1, 1) rotate(194.000000) translate(-9.485148, -10.379039) translate(2.985148, 4.879039)">
                    <g id="Group-4" transform="translate(7.213032, 5.400557) rotate(-4.000000) translate(-7.213032, -5.400557) translate(2.713032, 0.900557)" stroke="#767676">
                        <path d="M0.0507092993,5.16948214 C-0.319079381,2.71221963 1.37332642,0.420490637 3.83063184,0.0507084138 C6.28793727,-0.319073809 8.579497,1.37330244 8.94928568,3.83056496 C9.31907436,6.28782747 7.62687783,8.57934719 5.16957241,8.94933868 C3.9409197,9.13412516 2.75370341,8.80347665 1.8272436,8.11957835" id="Stroke-3"></path>
                    </g>
                    <polygon id="Stroke-5" fill="#767676" transform="translate(2.489137, 6.263638) rotate(12.000000) translate(-2.489137, -6.263638) " points="4.63911965 4.47346638 2.54292475 8.12085359 0.339154613 4.40642188"></polygon>
                </g>
            </g>
        </g>
    </g>
</svg>