<?xml version="1.0" encoding="UTF-8"?>
<svg width="24px" height="24px" viewBox="0 0 24 24" version="1.1" xmlns="http://www.w3.org/2000/svg" xmlns:xlink="http://www.w3.org/1999/xlink">
    <!-- Generator: Sketch 54.1 (76490) - https://sketchapp.com -->
    <title>GNB / BTN / Search</title>
    <desc>Created with Sketch.</desc>
    <g id="Symbols" stroke="none" stroke-width="1" fill="none" fill-rule="evenodd" opacity="0.800000012">
        <g id="MO-/-Thumbnail-/-Sell_upload" transform="translate(-48.000000, 0.000000)">
            <g id="GNB-/-BTN-/-Close_black" transform="translate(48.000000, 0.000000)">
                <rect id="Rectangle" fill="#1D1D1D" x="0" y="0" width="24" height="24"></rect>
                <g id="Icon-/-Search" stroke-width="1" transform="translate(6.240000, 6.240000)">
                    <rect id="Area" x="0" y="0" width="11.52" height="11.52"></rect>
                    <path d="M5.76,5.76 L10.56,0.96 L5.76,5.76 L0.96,0.96 L5.76,5.76 Z M5.76,5.76 L10.56,10.56 L5.76,5.76 L0.96,10.56 L5.76,5.76 Z" id="Combined-Shape" stroke="#FFFFFF" stroke-linecap="square"></path>
                </g>
            </g>
        </g>
    </g>
</svg>