<?xml version="1.0" encoding="UTF-8"?>
<svg width="42px" height="42px" viewBox="0 0 42 42" version="1.1" xmlns="http://www.w3.org/2000/svg" xmlns:xlink="http://www.w3.org/1999/xlink">
    <!-- Generator: Sketch 54.1 (76490) - https://sketchapp.com -->
    <title>ICON / Detail View</title>
    <desc>Created with Sketch.</desc>
    <g id="Symbols" stroke="none" stroke-width="1" fill="none" fill-rule="evenodd">
        <g id="BTN-/-Detail-View-/-TXT+ICON" transform="translate(0.000000, -30.000000)">
            <g id="ICON-/-Detail-View" transform="translate(0.000000, 30.000000)">
                <circle id="Oval" fill="#ECEBE7" cx="21" cy="21" r="21"></circle>
                <path d="M21.8881119,22 L21.8881119,29 L19.8881119,29 L19.8881119,22 L13,22 L13,20 L19.8881119,20 L19.8881119,13 L21.8881119,13 L21.8881119,20 L29,20 L29,22 L21.8881119,22 Z" id="Combined-Shape" fill="#424249" opacity="0.5"></path>
            </g>
        </g>
    </g>
</svg>